The Defence Economist - Using Wiki Data
…
Rows: 109 Columns: 2
── Column specification ────────────────────────────────────────────────────────
Delimiter: ","
chr (2): item, itemLabel

ℹ Use `spec()` to retrieve the full column specification for this data.
ℹ Specify the column types or set `show_col_types = FALSE` to quiet this message.

# A tibble: 109 × 2
   item                                     itemLabel                        
   <chr>                                    <chr>                            
 1 http://www.wikidata.org/entity/Q9017275  Japanese aircraft carrier Kasagi 
 2 http://www.wikidata.org/entity/Q11663899 Kurama                           
 3 http://www.wikidata.org/entity/Q12761681 Warship Number 797               
 4 http://www.wikidata.org/entity/Q14565078 INS Vikrant                      
 5 http://www.wikidata.org/entity/Q16979335 Varyag                           
 6 http://www.wikidata.org/entity/Q24174815 Chinese aircraft carrier Shandong
 7 http://www.wikidata.org/entity/Q29654179 Chinese aircraft carrier Fujian  
 8 http://www.wikidata.org/entity/Q58197403 Ulyanovsk                        
 9 http://www.wikidata.org/entity/Q95951066 New Generation Aircraft Carrier  
10 http://www.wikidata.org/entity/Q9568     HMS Eagle                        
# … with 99 more rows
…
Rows: 158 Columns: 5
── Column specification ────────────────────────────────────────────────────────
Delimiter: ","
chr  (4): ship, shipLabel, event, eventLabel
dttm (1): time

ℹ Use `spec()` to retrieve the full column specification for this data.
ℹ Specify the column types or set `show_col_types = FALSE` to quiet this message.

# A tibble: 158 × 5
   ship                                shipL…¹ event event…² time               
   <chr>                               <chr>   <chr> <chr>   <dttm>             
 1 http://www.wikidata.org/entity/Q74… Q749453 http… Q14475… 1937-12-29 00:00:00
 2 http://www.wikidata.org/entity/Q13… Q13616… http… Q14475… 1943-05-25 00:00:00
 3 http://www.wikidata.org/entity/Q83… Q838125 http… Q14475… 1941-10-20 00:00:00
 4 http://www.wikidata.org/entity/Q85… Q852981 http… Q14475… 1927-11-16 00:00:00
 5 http://www.wikidata.org/entity/Q92… Q927741 http… Q14475… 1917-01-01 00:00:00
 6 http://www.wikidata.org/entity/Q10… Q10320… http… Q14475… 1944-08-28 00:00:00
 7 http://www.wikidata.org/entity/Q10… Q10320… http… Q14475… 1943-12-08 00:00:00
 8 http://www.wikidata.org/entity/Q10… Q10320… http… Q14475… 1950-05-28 00:00:00
 9 http://www.wikidata.org/entity/Q86… Q860823 http… Q14475… 1922-12-31 00:00:00
10 http://www.wikidata.org/entity/Q11… Q11407… http… Q14475… 1940-05-25 00:00:00
# … with 148 more rows, and abbreviated variable names ¹​shipLabel, ²​eventLabel
