Sentiment Analysis of Public Accounts Committee Oral Evidence Hearing
…
meta_df <- tibble::tibble(committee, oral, date, members, witnesses)

tidy_document <- list(meta_df, body = tidy_text)
tidy_document

## [[1]]
## # A tibble: 1 x 5
##   committee    oral              date    members            witnesses           
##   <chr>        <chr>             <chr>   <chr>              <chr>               
## 1 Public Acco~ Oral evidence: D~ Thursd~ Meg Hillier:|Gare~ Sir Simon Bollom:|A~
## 
## $body
## # A tibble: 268 x 3
## # Groups:   question, person [186]
##    question person           dialogue                                           
##    <chr>    <chr>            <chr>                                              
##  1 Opening  Chair            Welcome to the Public Accounts Committee on Thursd~
##  2 Opening  Chair            I would like to introduce our witnesses. We have S~
##  3 Opening  Chair            We have a big job to get through today, in the lig~
##  4 Opening  Sir Stephen Lov~ I wish it had been quicker, candidly. It has been ~
##  5 Opening  Sir Stephen Lov~ I think we are very, very close to the end of this~
##  6 Q1       Chair            It is a real disappointment for something that, on~
##  7 Q1       Sir Stephen Lov~ Yes, of course. We have already made a number of c~
##  8 Q2       Chair            I would hope so, because an individual managed to ~
##  9 Q2       Chair            Let me move on to the general issues relating to t~
## 10 Q2       Sir Stephen Lov~ It is certainly not to hide anything. Whether or n~
## # ... with 258 more rows
…
