The Defence Economist - Synthetic Control Methods
…
For more specific information, there is a significance table that can be extracted with one of the many grab_ prefix functions.

Code

smoking_out %>% grab_significance()

# A tibble: 39 × 8
   unit_name      type  pre_mspe post_mspe mspe_ratio  rank fishers_exact_pvalue
   <chr>          <chr>    <dbl>     <dbl>      <dbl> <int>                <dbl>
 1 California     Trea…     3.17     392.      124.       1               0.0256
 2 Georgia        Donor     3.79     179.       47.2      2               0.0513
 3 Indiana        Donor    25.2      770.       30.6      3               0.0769
 4 West Virginia  Donor     9.52     284.       29.8      4               0.103 
 5 Wisconsin      Donor    11.1      268.       24.1      5               0.128 
 6 Missouri       Donor     3.03      67.8      22.4      6               0.154 
 7 Texas          Donor    14.4      277.       19.3      7               0.179 
 8 South Carolina Donor    12.6      234.       18.6      8               0.205 
 9 Virginia       Donor     9.81      96.4       9.83     9               0.231 
10 Nebraska       Donor     6.30      52.9       8.40    10               0.256 
# ℹ 29 more rows
# ℹ 1 more variable: z_score <dbl>
…
