The Defence Economist - Using Wiki Data to Extract Data
…
scrape_infobox <- function(
    url ="https://en.wikipedia.org/wiki/Type_094_submarine"
){
  req <- httr::GET(url)
  req |> 
    httr::content() |> 
    xml2::xml_find_all("//table[@class='infobox']") |>
    rvest::html_table() 
}

scrape_infobox("https://en.wikipedia.org/wiki/Type_094_submarine")

[[1]]
# A tibble: 22 × 2
   X1                      X2                               
   <chr>                   <chr>                            
 1 Profile of the Type 094 Profile of the Type 094          
 2 Type 094 submarine      Type 094 submarine               
 3 Class overview          Class overview                   
 4 Name                    Type 094 (Jin class)             
 5 Builders                Bohai Shipyard, Huludao, China[2]
 6 Operators               People's Liberation Army Navy    
 7 Preceded by             Type 092 (Xia class)             
 8 Succeeded by            Type 096                         
 9 Cost                    $750 million per unit[1]         
10 In commission           2007–present[2]                  
# … with 12 more rows
…
